D:\Dropwizard\dropwizard-kafka-http-master\dropwizard-kafka-http-master\src\ly\stealth\kafkahttp\KafkaApplication.java
D:\Dropwizard\dropwizard-kafka-http-master\dropwizard-kafka-http-master\src\ly\stealth\kafkahttp\MessageResource.java
D:\Dropwizard\dropwizard-kafka-http-master\dropwizard-kafka-http-master\src\ly\stealth\kafkahttp\KafkaConfiguration.java
